2019-02-26 10:34:38,785 ERROR: Exception on /u/lsrdg [GET] [in /home/lsrdg/git/circontext/venv/lib/python3.7/site-packages/flask/app.py:1761]
Traceback (most recent call last):
  File "/home/lsrdg/git/circontext/venv/lib/python3.7/site-packages/flask/app.py", line 2292, in wsgi_app
    response = self.full_dispatch_request()
  File "/home/lsrdg/git/circontext/venv/lib/python3.7/site-packages/flask/app.py", line 1815, in full_dispatch_request
    rv = self.handle_user_exception(e)
  File "/home/lsrdg/git/circontext/venv/lib/python3.7/site-packages/flask/app.py", line 1718, in handle_user_exception
    reraise(exc_type, exc_value, tb)
  File "/home/lsrdg/git/circontext/venv/lib/python3.7/site-packages/flask/_compat.py", line 35, in reraise
    raise value
  File "/home/lsrdg/git/circontext/venv/lib/python3.7/site-packages/flask/app.py", line 1813, in full_dispatch_request
    rv = self.dispatch_request()
  File "/home/lsrdg/git/circontext/venv/lib/python3.7/site-packages/flask/app.py", line 1799, in dispatch_request
    return self.view_functions[rule.endpoint](**req.view_args)
  File "/home/lsrdg/git/circontext/venv/lib/python3.7/site-packages/flask_login/utils.py", line 261, in decorated_view
    return func(*args, **kwargs)
  File "/home/lsrdg/git/circontext/app/routes.py", line 98, in user
    @login_required
  File "/home/lsrdg/git/circontext/venv/lib/python3.7/site-packages/flask/templating.py", line 135, in render_template
    context, ctx.app)
  File "/home/lsrdg/git/circontext/venv/lib/python3.7/site-packages/flask/templating.py", line 117, in _render
    rv = template.render(context)
  File "/home/lsrdg/git/circontext/venv/lib/python3.7/site-packages/jinja2/asyncsupport.py", line 76, in render
    return original_render(self, *args, **kwargs)
  File "/home/lsrdg/git/circontext/venv/lib/python3.7/site-packages/jinja2/environment.py", line 1008, in render
    return self.environment.handle_exception(exc_info, True)
  File "/home/lsrdg/git/circontext/venv/lib/python3.7/site-packages/jinja2/environment.py", line 780, in handle_exception
    reraise(exc_type, exc_value, tb)
  File "/home/lsrdg/git/circontext/venv/lib/python3.7/site-packages/jinja2/_compat.py", line 37, in reraise
    raise value.with_traceback(tb)
  File "/home/lsrdg/git/circontext/app/templates/user.html", line 1, in top-level template code
    {% extends "base.html" %}
  File "/home/lsrdg/git/circontext/app/templates/base.html", line 30, in top-level template code
    {% endwith %}
  File "/home/lsrdg/git/circontext/app/templates/user.html", line 24, in block "content"
    {% include '_text.html' %}
  File "/home/lsrdg/git/circontext/app/templates/_text.html", line 5, in top-level template code
    <a href="{{ url_for('user', username=text.author.username) }}">
  File "/home/lsrdg/git/circontext/venv/lib/python3.7/site-packages/jinja2/environment.py", line 430, in getattr
    return getattr(obj, attribute)
jinja2.exceptions.UndefinedError: 'post' is undefined
2019-02-26 10:34:38,825 ERROR: Exception on /u/lsrdg [GET] [in /home/lsrdg/git/circontext/venv/lib/python3.7/site-packages/flask/app.py:1761]
Traceback (most recent call last):
  File "/home/lsrdg/git/circontext/venv/lib/python3.7/site-packages/flask/app.py", line 2292, in wsgi_app
    response = self.full_dispatch_request()
  File "/home/lsrdg/git/circontext/venv/lib/python3.7/site-packages/flask/app.py", line 1815, in full_dispatch_request
    rv = self.handle_user_exception(e)
  File "/home/lsrdg/git/circontext/venv/lib/python3.7/site-packages/flask/app.py", line 1718, in handle_user_exception
    reraise(exc_type, exc_value, tb)
  File "/home/lsrdg/git/circontext/venv/lib/python3.7/site-packages/flask/_compat.py", line 35, in reraise
    raise value
  File "/home/lsrdg/git/circontext/venv/lib/python3.7/site-packages/flask/app.py", line 1813, in full_dispatch_request
    rv = self.dispatch_request()
  File "/home/lsrdg/git/circontext/venv/lib/python3.7/site-packages/flask/app.py", line 1799, in dispatch_request
    return self.view_functions[rule.endpoint](**req.view_args)
  File "/home/lsrdg/git/circontext/venv/lib/python3.7/site-packages/flask_login/utils.py", line 261, in decorated_view
    return func(*args, **kwargs)
  File "/home/lsrdg/git/circontext/app/routes.py", line 98, in user
    @login_required
  File "/home/lsrdg/git/circontext/venv/lib/python3.7/site-packages/flask/templating.py", line 135, in render_template
    context, ctx.app)
  File "/home/lsrdg/git/circontext/venv/lib/python3.7/site-packages/flask/templating.py", line 117, in _render
    rv = template.render(context)
  File "/home/lsrdg/git/circontext/venv/lib/python3.7/site-packages/jinja2/asyncsupport.py", line 76, in render
    return original_render(self, *args, **kwargs)
  File "/home/lsrdg/git/circontext/venv/lib/python3.7/site-packages/jinja2/environment.py", line 1008, in render
    return self.environment.handle_exception(exc_info, True)
  File "/home/lsrdg/git/circontext/venv/lib/python3.7/site-packages/jinja2/environment.py", line 780, in handle_exception
    reraise(exc_type, exc_value, tb)
  File "/home/lsrdg/git/circontext/venv/lib/python3.7/site-packages/jinja2/_compat.py", line 37, in reraise
    raise value.with_traceback(tb)
  File "/home/lsrdg/git/circontext/app/templates/user.html", line 1, in top-level template code
    {% extends "base.html" %}
  File "/home/lsrdg/git/circontext/app/templates/base.html", line 30, in top-level template code
    {% endwith %}
  File "/home/lsrdg/git/circontext/app/templates/user.html", line 24, in block "content"
    {% include '_text.html' %}
  File "/home/lsrdg/git/circontext/app/templates/_text.html", line 5, in top-level template code
    <a href="{{ url_for('user', username=text.author.username) }}">
  File "/home/lsrdg/git/circontext/venv/lib/python3.7/site-packages/jinja2/environment.py", line 430, in getattr
    return getattr(obj, attribute)
jinja2.exceptions.UndefinedError: 'post' is undefined
2019-02-26 10:34:38,865 ERROR: Exception on /u/lsrdg [GET] [in /home/lsrdg/git/circontext/venv/lib/python3.7/site-packages/flask/app.py:1761]
Traceback (most recent call last):
  File "/home/lsrdg/git/circontext/venv/lib/python3.7/site-packages/flask/app.py", line 2292, in wsgi_app
    response = self.full_dispatch_request()
  File "/home/lsrdg/git/circontext/venv/lib/python3.7/site-packages/flask/app.py", line 1815, in full_dispatch_request
    rv = self.handle_user_exception(e)
  File "/home/lsrdg/git/circontext/venv/lib/python3.7/site-packages/flask/app.py", line 1718, in handle_user_exception
    reraise(exc_type, exc_value, tb)
  File "/home/lsrdg/git/circontext/venv/lib/python3.7/site-packages/flask/_compat.py", line 35, in reraise
    raise value
  File "/home/lsrdg/git/circontext/venv/lib/python3.7/site-packages/flask/app.py", line 1813, in full_dispatch_request
    rv = self.dispatch_request()
  File "/home/lsrdg/git/circontext/venv/lib/python3.7/site-packages/flask/app.py", line 1799, in dispatch_request
    return self.view_functions[rule.endpoint](**req.view_args)
  File "/home/lsrdg/git/circontext/venv/lib/python3.7/site-packages/flask_login/utils.py", line 261, in decorated_view
    return func(*args, **kwargs)
  File "/home/lsrdg/git/circontext/app/routes.py", line 98, in user
    @login_required
  File "/home/lsrdg/git/circontext/venv/lib/python3.7/site-packages/flask/templating.py", line 135, in render_template
    context, ctx.app)
  File "/home/lsrdg/git/circontext/venv/lib/python3.7/site-packages/flask/templating.py", line 117, in _render
    rv = template.render(context)
  File "/home/lsrdg/git/circontext/venv/lib/python3.7/site-packages/jinja2/asyncsupport.py", line 76, in render
    return original_render(self, *args, **kwargs)
  File "/home/lsrdg/git/circontext/venv/lib/python3.7/site-packages/jinja2/environment.py", line 1008, in render
    return self.environment.handle_exception(exc_info, True)
  File "/home/lsrdg/git/circontext/venv/lib/python3.7/site-packages/jinja2/environment.py", line 780, in handle_exception
    reraise(exc_type, exc_value, tb)
  File "/home/lsrdg/git/circontext/venv/lib/python3.7/site-packages/jinja2/_compat.py", line 37, in reraise
    raise value.with_traceback(tb)
  File "/home/lsrdg/git/circontext/app/templates/user.html", line 1, in top-level template code
    {% extends "base.html" %}
  File "/home/lsrdg/git/circontext/app/templates/base.html", line 30, in top-level template code
    {% endwith %}
  File "/home/lsrdg/git/circontext/app/templates/user.html", line 24, in block "content"
    {% include '_text.html' %}
  File "/home/lsrdg/git/circontext/app/templates/_text.html", line 5, in top-level template code
    <a href="{{ url_for('user', username=text.author.username) }}">
  File "/home/lsrdg/git/circontext/venv/lib/python3.7/site-packages/jinja2/environment.py", line 430, in getattr
    return getattr(obj, attribute)
jinja2.exceptions.UndefinedError: 'post' is undefined
